%YAML 1.1
%TAG !u! tag:unity3d.com,2011:
--- !u!114 &11400000
MonoBehaviour:
  m_ObjectHideFlags: 0
  m_CorrespondingSourceObject: {fileID: 0}
  m_PrefabInternal: {fileID: 0}
  m_GameObject: {fileID: 0}
  m_Enabled: 1
  m_EditorHideFlags: 0
  m_Script: {fileID: 11500000, guid: bab06074d2da18a4c80bbf78b22deb07, type: 3}
  m_Name: HolyBible
  m_EditorClassIdentifier: 
  abils:
  - category: 0
    header: abil1
    characteristics: someChars
    description: Abil1Abil1Abil1Abil1Abil1Abil1Abil1Abil1Abil1Abil1Abil1Abil1Abil1Abil1Abil1Abil1Abil1Abil1Abil1Abil1Abil1Abil1Abil1Abil1Abil1
    image: {fileID: 21300000, guid: 16a9e74fe8037ba43a3934bdb79bbbc8, type: 3}
  - category: 0
    header: abil2
    characteristics: someChars2
    description: abil2abil2abil2abil2abil2abil2abil2abil2abil2abil2abil2abil2abil2abil2abil2abil2abil2abil2abil2abil2abil2abil2abil2abil2abil2abil2abil2abil2abil2abil2abil2abil2abil2abil2abil2abil2abil2abil2abil2abil2abil2abil2abil2abil2abil2abil2abil2abil2abil2abil2abil2abil2abil2abil2abil2abil2abil2
    image: {fileID: 21300000, guid: 59ee31e0a404c7a488fbda016930b1aa, type: 3}
  - category: 0
    header: abil2
    characteristics: someChars2
    description: abil2abil2abil2abil2abil2abil2abil2abil2abil2abil2abil2abil2abil2abil2abil2abil2abil2abil2abil2abil2abil2abil2abil2abil2abil2abil2abil2abil2abil2abil2abil2abil2abil2abil2abil2abil2abil2abil2abil2abil2abil2abil2abil2abil2abil2abil2abil2abil2abil2abil2abil2abil2abil2abil2abil2abil2abil2
    image: {fileID: 21300000, guid: 59ee31e0a404c7a488fbda016930b1aa, type: 3}
  - category: 0
    header: abil2
    characteristics: someChars2
    description: abil2abil2abil2abil2abil2abil2abil2abil2abil2abil2abil2abil2abil2abil2abil2abil2abil2abil2abil2abil2abil2abil2abil2abil2abil2abil2abil2abil2abil2abil2abil2abil2abil2abil2abil2abil2abil2abil2abil2abil2abil2abil2abil2abil2abil2abil2abil2abil2abil2abil2abil2abil2abil2abil2abil2abil2abil2
    image: {fileID: 21300000, guid: 59ee31e0a404c7a488fbda016930b1aa, type: 3}
  - category: 0
    header: abil2
    characteristics: someChars2
    description: abil2abil2abil2abil2abil2abil2abil2abil2abil2abil2abil2abil2abil2abil2abil2abil2abil2abil2abil2abil2abil2abil2abil2abil2abil2abil2abil2abil2abil2abil2abil2abil2abil2abil2abil2abil2abil2abil2abil2abil2abil2abil2abil2abil2abil2abil2abil2abil2abil2abil2abil2abil2abil2abil2abil2abil2abil2
    image: {fileID: 21300000, guid: 59ee31e0a404c7a488fbda016930b1aa, type: 3}
  - category: 0
    header: abil2
    characteristics: someChars2
    description: abil2abil2abil2abil2abil2abil2abil2abil2abil2abil2abil2abil2abil2abil2abil2abil2abil2abil2abil2abil2abil2abil2abil2abil2abil2abil2abil2abil2abil2abil2abil2abil2abil2abil2abil2abil2abil2abil2abil2abil2abil2abil2abil2abil2abil2abil2abil2abil2abil2abil2abil2abil2abil2abil2abil2abil2abil2
    image: {fileID: 21300000, guid: 59ee31e0a404c7a488fbda016930b1aa, type: 3}
  - category: 0
    header: abil2
    characteristics: someChars2
    description: abil2abil2abil2abil2abil2abil2abil2abil2abil2abil2abil2abil2abil2abil2abil2abil2abil2abil2abil2abil2abil2abil2abil2abil2abil2abil2abil2abil2abil2abil2abil2abil2abil2abil2abil2abil2abil2abil2abil2abil2abil2abil2abil2abil2abil2abil2abil2abil2abil2abil2abil2abil2abil2abil2abil2abil2abil2
    image: {fileID: 21300000, guid: 59ee31e0a404c7a488fbda016930b1aa, type: 3}
  - category: 0
    header: abil2
    characteristics: someChars2
    description: abil2abil2abil2abil2abil2abil2abil2abil2abil2abil2abil2abil2abil2abil2abil2abil2abil2abil2abil2abil2abil2abil2abil2abil2abil2abil2abil2abil2abil2abil2abil2abil2abil2abil2abil2abil2abil2abil2abil2abil2abil2abil2abil2abil2abil2abil2abil2abil2abil2abil2abil2abil2abil2abil2abil2abil2abil2
    image: {fileID: 21300000, guid: 59ee31e0a404c7a488fbda016930b1aa, type: 3}
  - category: 0
    header: abil2
    characteristics: someChars2
    description: abil2abil2abil2abil2abil2abil2abil2abil2abil2abil2abil2abil2abil2abil2abil2abil2abil2abil2abil2abil2abil2abil2abil2abil2abil2abil2abil2abil2abil2abil2abil2abil2abil2abil2abil2abil2abil2abil2abil2abil2abil2abil2abil2abil2abil2abil2abil2abil2abil2abil2abil2abil2abil2abil2abil2abil2abil2
    image: {fileID: 21300000, guid: 59ee31e0a404c7a488fbda016930b1aa, type: 3}
  - category: 0
    header: abil2
    characteristics: someChars2
    description: abil2abil2abil2abil2abil2abil2abil2abil2abil2abil2abil2abil2abil2abil2abil2abil2abil2abil2abil2abil2abil2abil2abil2abil2abil2abil2abil2abil2abil2abil2abil2abil2abil2abil2abil2abil2abil2abil2abil2abil2abil2abil2abil2abil2abil2abil2abil2abil2abil2abil2abil2abil2abil2abil2abil2abil2abil2
    image: {fileID: 21300000, guid: 59ee31e0a404c7a488fbda016930b1aa, type: 3}
  weapons:
  - category: 1
    header: Weapon
    characteristics: Weapon1
    description: Weapon1Weapon1Weapon1Weapon1Weapon1Weapon1Weapon1Weapon1Weapon1Weapon1Weapon1Weapon1Weapon1Weapon1Weapon1Weapon1Weapon1Weapon1Weapon1Weapon1Weapon1Weapon1Weapon1Weapon1Weapon1Weapon1Weapon1Weapon1Weapon1Weapon1Weapon1Weapon1Weapon1Weapon1Weapon1Weapon1Weapon1Weapon1Weapon1Weapon1Weapon1Weapon1Weapon1Weapon1Weapon1Weapon1Weapon1Weapon1
    image: {fileID: 21300000, guid: 3115a5f545ef7f841bb048adc60b804d, type: 3}
  - category: 1
    header: Weapon2
    characteristics: Weapon2
    description: Weapon2Weapon2Weapon2Weapon2Weapon2Weapon2Weapon2Weapon2Weapon2Weapon2Weapon2Weapon2Weapon2Weapon2Weapon2Weapon2Weapon2Weapon2Weapon2Weapon2Weapon2Weapon2Weapon2Weapon2Weapon2Weapon2Weapon2Weapon2Weapon2Weapon2Weapon2Weapon2Weapon2Weapon2Weapon2Weapon2Weapon2Weapon2Weapon2Weapon2Weapon2Weapon2Weapon2Weapon2Weapon2Weapon2Weapon2Weapon2Weapon2Weapon2Weapon2Weapon2Weapon2Weapon2Weapon2Weapon2Weapon2Weapon2Weapon2Weapon2Weapon2Weapon2Weapon2
    image: {fileID: 21300000, guid: 6ea5aa279a58995468809f9c9e6e103e, type: 3}
  chars:
  - category: 2
    header: Char1
    characteristics: Char1
    description: Char1Char1Char1Char1Char1Char1Char1Char1Char1Char1Char1Char1Char1Char1Char1Char1Char1Char1Char1Char1Char1Char1Char1Char1Char1Char1Char1Char1Char1Char1Char1Char1Char1Char1Char1Char1Char1Char1Char1Char1Char1Char1Char1Char1Char1Char1Char1Char1Char1Char1Char1Char1Char1Char1Char1Char1Char1Char1Char1Char1Char1Char1Char1Char1Char1Char1Char1Char1Char1Char1Char1Char1Char1Char1Char1Char1Char1Char1Char1Char1Char1Char1Char1Char1Char1Char1Char1Char1Char1Char1Char1Char1Char1Char1
    image: {fileID: 21300000, guid: 8569f94a03ffd5248b8840b3c8578101, type: 3}
  - category: 2
    header: Char2
    characteristics: Char2
    description: Char2Char2Char2Char2Char2Char2Char2Char2Char2Char2Char2Char2Char2Char2Char2Char2Char2Char2Char2Char2Char2Char2Char2Char2Char2Char2Char2Char2Char2Char2Char2Char2Char2Char2Char2Char2Char2Char2Char2Char2Char2Char2Char2Char2Char2Char2Char2Char2
    image: {fileID: 21300000, guid: 3b67dbaca9908d64eba4b75032112f3a, type: 3}
  envirnt:
  - category: 3
    header: Env1
    characteristics: Env1
    description: Env1Env1Env1Env1Env1Env1Env1Env1Env1Env1Env1Env1Env1Env1Env1Env1Env1Env1Env1Env1Env1Env1Env1Env1Env1Env1Env1Env1Env1Env1Env1Env1Env1Env1Env1Env1Env1Env1Env1Env1Env1Env1Env1Env1Env1Env1Env1Env1Env1Env1Env1Env1Env1Env1Env1Env1Env1Env1Env1Env1Env1Env1Env1Env1Env1Env1Env1Env1Env1Env1Env1Env1Env1Env1Env1Env1Env1Env1Env1Env1Env1Env1Env1Env1Env1Env1Env1Env1Env1Env1Env1Env1Env1Env1Env1
    image: {fileID: 21300000, guid: b62fa961542923c4f84b36e728c9e99d, type: 3}
  - category: 3
    header: Env2
    characteristics: Env2
    description: Env2Env2Env2Env2Env2Env2Env2Env2Env2Env2Env2Env2Env2Env2Env2Env2Env2Env2Env2Env2Env2Env2Env2Env2Env2Env2Env2Env2Env2Env2Env2Env2Env2Env2Env2Env2Env2Env2Env2Env2Env2Env2Env2Env2Env2Env2Env2Env2Env2Env2Env2Env2Env2Env2Env2Env2Env2Env2Env2Env2Env2Env2Env2Env2Env2Env2Env2Env2Env2Env2Env2Env2Env2Env2Env2Env2Env2Env2Env2Env2Env2Env2Env2Env2Env2Env2
    image: {fileID: 21300000, guid: 72a382ee36c63624f9d2680dd851b4de, type: 3}
  - category: 3
    header: Env2
    characteristics: Env2
    description: Env2Env2Env2Env2Env2Env2Env2Env2Env2Env2Env2Env2Env2Env2Env2Env2Env2Env2Env2Env2Env2Env2Env2Env2Env2Env2Env2Env2Env2Env2Env2Env2Env2Env2Env2Env2Env2Env2Env2Env2Env2Env2Env2Env2Env2Env2Env2Env2Env2Env2Env2Env2Env2Env2Env2Env2Env2Env2Env2Env2Env2Env2Env2Env2Env2Env2Env2Env2Env2Env2Env2Env2Env2Env2Env2Env2Env2Env2Env2Env2Env2Env2Env2Env2Env2Env2
    image: {fileID: 21300000, guid: 72a382ee36c63624f9d2680dd851b4de, type: 3}
  - category: 3
    header: Env2
    characteristics: Env2
    description: Env2Env2Env2Env2Env2Env2Env2Env2Env2Env2Env2Env2Env2Env2Env2Env2Env2Env2Env2Env2Env2Env2Env2Env2Env2Env2Env2Env2Env2Env2Env2Env2Env2Env2Env2Env2Env2Env2Env2Env2Env2Env2Env2Env2Env2Env2Env2Env2Env2Env2Env2Env2Env2Env2Env2Env2Env2Env2Env2Env2Env2Env2Env2Env2Env2Env2Env2Env2Env2Env2Env2Env2Env2Env2Env2Env2Env2Env2Env2Env2Env2Env2Env2Env2Env2Env2
    image: {fileID: 21300000, guid: 72a382ee36c63624f9d2680dd851b4de, type: 3}
  - category: 3
    header: Env2
    characteristics: Env2
    description: Env2Env2Env2Env2Env2Env2Env2Env2Env2Env2Env2Env2Env2Env2Env2Env2Env2Env2Env2Env2Env2Env2Env2Env2Env2Env2Env2Env2Env2Env2Env2Env2Env2Env2Env2Env2Env2Env2Env2Env2Env2Env2Env2Env2Env2Env2Env2Env2Env2Env2Env2Env2Env2Env2Env2Env2Env2Env2Env2Env2Env2Env2Env2Env2Env2Env2Env2Env2Env2Env2Env2Env2Env2Env2Env2Env2Env2Env2Env2Env2Env2Env2Env2Env2Env2Env2
    image: {fileID: 21300000, guid: 72a382ee36c63624f9d2680dd851b4de, type: 3}
  - category: 3
    header: Env2
    characteristics: Env2
    description: Env2Env2Env2Env2Env2Env2Env2Env2Env2Env2Env2Env2Env2Env2Env2Env2Env2Env2Env2Env2Env2Env2Env2Env2Env2Env2Env2Env2Env2Env2Env2Env2Env2Env2Env2Env2Env2Env2Env2Env2Env2Env2Env2Env2Env2Env2Env2Env2Env2Env2Env2Env2Env2Env2Env2Env2Env2Env2Env2Env2Env2Env2Env2Env2Env2Env2Env2Env2Env2Env2Env2Env2Env2Env2Env2Env2Env2Env2Env2Env2Env2Env2Env2Env2Env2Env2
    image: {fileID: 21300000, guid: 72a382ee36c63624f9d2680dd851b4de, type: 3}
  - category: 3
    header: Env2
    characteristics: Env2
    description: Env2Env2Env2Env2Env2Env2Env2Env2Env2Env2Env2Env2Env2Env2Env2Env2Env2Env2Env2Env2Env2Env2Env2Env2Env2Env2Env2Env2Env2Env2Env2Env2Env2Env2Env2Env2Env2Env2Env2Env2Env2Env2Env2Env2Env2Env2Env2Env2Env2Env2Env2Env2Env2Env2Env2Env2Env2Env2Env2Env2Env2Env2Env2Env2Env2Env2Env2Env2Env2Env2Env2Env2Env2Env2Env2Env2Env2Env2Env2Env2Env2Env2Env2Env2Env2Env2
    image: {fileID: 21300000, guid: 72a382ee36c63624f9d2680dd851b4de, type: 3}
  - category: 3
    header: Env2
    characteristics: Env2
    description: Env2Env2Env2Env2Env2Env2Env2Env2Env2Env2Env2Env2Env2Env2Env2Env2Env2Env2Env2Env2Env2Env2Env2Env2Env2Env2Env2Env2Env2Env2Env2Env2Env2Env2Env2Env2Env2Env2Env2Env2Env2Env2Env2Env2Env2Env2Env2Env2Env2Env2Env2Env2Env2Env2Env2Env2Env2Env2Env2Env2Env2Env2Env2Env2Env2Env2Env2Env2Env2Env2Env2Env2Env2Env2Env2Env2Env2Env2Env2Env2Env2Env2Env2Env2Env2Env2
    image: {fileID: 21300000, guid: 72a382ee36c63624f9d2680dd851b4de, type: 3}
  - category: 3
    header: Env2
    characteristics: Env2
    description: Env2Env2Env2Env2Env2Env2Env2Env2Env2Env2Env2Env2Env2Env2Env2Env2Env2Env2Env2Env2Env2Env2Env2Env2Env2Env2Env2Env2Env2Env2Env2Env2Env2Env2Env2Env2Env2Env2Env2Env2Env2Env2Env2Env2Env2Env2Env2Env2Env2Env2Env2Env2Env2Env2Env2Env2Env2Env2Env2Env2Env2Env2Env2Env2Env2Env2Env2Env2Env2Env2Env2Env2Env2Env2Env2Env2Env2Env2Env2Env2Env2Env2Env2Env2Env2Env2
    image: {fileID: 21300000, guid: 72a382ee36c63624f9d2680dd851b4de, type: 3}
  - category: 3
    header: Env2
    characteristics: Env2
    description: Env2Env2Env2Env2Env2Env2Env2Env2Env2Env2Env2Env2Env2Env2Env2Env2Env2Env2Env2Env2Env2Env2Env2Env2Env2Env2Env2Env2Env2Env2Env2Env2Env2Env2Env2Env2Env2Env2Env2Env2Env2Env2Env2Env2Env2Env2Env2Env2Env2Env2Env2Env2Env2Env2Env2Env2Env2Env2Env2Env2Env2Env2Env2Env2Env2Env2Env2Env2Env2Env2Env2Env2Env2Env2Env2Env2Env2Env2Env2Env2Env2Env2Env2Env2Env2Env2
    image: {fileID: 21300000, guid: 72a382ee36c63624f9d2680dd851b4de, type: 3}
